{
  "__DO_NOT_TOUCH__": "Warning! This file is auto generated, please do not touch.",
  "iso": [
    {
      "filename": "A Movie.iso",
      "last_checked": "01-14-2023 13:17:37",
      "mkv_extracted": true,
      "mkv_count": 6
    }
  ],
  "mkv_split": [],
  "mkv_merge": [],
  "mkv": [
    {
      "filename": "A Movie_t04.mkv",
      "converted_original": true,
      "converted_tv": true,
      "converted_mobile": true,
      "extracted_subtitles": true
    }
  ],
  "mp4_split": [],
  "mp4_merge": []
}