{
  "version": "V1",
  "types": {
    "movie": {
      "display_name": "Movies",
      "output_folder": "Movies",
      "folder_type": "MOVIE"
    },
    "tv": {
      "display_name": "TV Shows",
      "output_folder": "TV Shows",
      "folder_type": "TV"
    }
  },
  "folders": [
    {
      "relative_path": "Movies",
      "type": "movie"
    },
    {
      "relative_path": "TV Shows",
      "type": "tv"
    }
  ]
}